<svg xmlns="http://www.w3.org/2000/svg" width="23" height="23" viewBox="0 0 23 23">
    <path fill="#000" fill-rule="nonzero" d="M10.628 14.218c-.024.086-.605-.197-.759-.259a15.58 15.58 0 0 1-1.031-.602c-.178-.123-.854-.701-.937-.738a22.327 22.327 0 0 1-1.588 2.226c-.214.258-.854 1.095-1.245 1.353-.06.037-.403.074-.45.05.19-.148.735-.85.972-1.132.296-.357 1.707-2.399 1.944-2.866.249-.468.996-2.017 1.031-2.165-.118-.012-1.055.32-1.304.406-.237.074-.889.234-.936.27-.048.05-.012.197-.036.246-.024.05-.237.16-.367.185-.119.037-.392.05-.558 0-.154-.037-.296-.197-.332-.258 0 0-.047-.074-.059-.283.142-.05.38-.062.64-.136.261-.073.901-.27 1.245-.393.344-.123 1.008-.381 1.21-.43.213-.038.746-.407 1.03-.505.285-.098.487-.221.498-.16.012.062 0 .332-.011.406-.012.062-.581 1.218-.664 1.402-.048.099-.38.75-.913 1.612.19.086.593.258.759.344a73.66 73.66 0 0 0 1.683.738c.071.025.201.59.178.689zM8.198 8.24c.035.21-.024.295-.048.344-.118.234-.415.394-.593.468a2.098 2.098 0 0 1-.71.147c-.107-.012-.32-.049-.582-.32-.142-.16-.249-.59-.201-.54.047.049.391.098.545.06.154-.036.522-.147.688-.196.178-.061.533-.16.652-.172.118 0 .213.05.249.209zm8.274 1.587l.747 2.792-1.648-.517.901-2.275zm-13.135 9.84l8.227-2.854V4.12L3.337 6.985v12.682zm14.712-3.9l1.209.382-2.146-8.081-1.185-.382-2.56 6.593 1.208.382.534-1.353 2.501.8.439 1.66zM12.086 3.936l6.792 2.263V1.524l-6.792 2.41zm3.687 16.273l1.873.16-.64 1.968-.475-.812c-.96.64-2.145 1.132-3.272 1.328-.343.074-.735.148-1.078.148h-.996c-1.257 0-3.545-.775-4.54-1.525-.071-.062-.095-.11-.095-.197 0-.135.095-.234.213-.234.107 0 .664.357.818.43 1.067.554 2.56 1.059 3.758 1.059 1.482 0 2.49-.197 3.84-.8.392-.184.736-.418 1.103-.627l-.51-.898zm5.31-13.272v13.272c-9.163-3.026-9.175-3.026-9.175-3.026-.19.086-8.69 3.063-8.808 3.063a.229.229 0 0 1-.213-.16c0-.012-.012-.025-.012-.037V6.788c.012-.036.024-.098.047-.122.072-.087.166-.111.238-.136.035-.012.758-.258 1.766-.615V1.192l6.615 2.435c.083-.024 7.456-2.669 7.563-2.669.13 0 .237.099.237.259v5.141l1.742.578z"/>
</svg>
